^D:\OLIO-JATKO\HARJOITUKSET\HARJOITUS2_2\REFCOUNT.CPP
C:\WINDOWS\GLOBALIZATION\SORTING\SORTDEFAULT.NLS
D:\VISUAL STUDIO 2017\VC\TOOLS\MSVC\14.11.25503\BIN\HOSTX86\X86\1033\CLUI.DLL
C:\WINDOWS\SYSTEM32\TZRES.DLL
D:\VISUAL STUDIO 2017\VC\TOOLS\MSVC\14.11.25503\INCLUDE\CSTDLIB
D:\VISUAL STUDIO 2017\VC\TOOLS\MSVC\14.11.25503\INCLUDE\YVALS.H
D:\VISUAL STUDIO 2017\VC\TOOLS\MSVC\14.11.25503\INCLUDE\XKEYCHECK.H
D:\VISUAL STUDIO 2017\VC\TOOLS\MSVC\14.11.25503\INCLUDE\CRTDEFS.H
D:\VISUAL STUDIO 2017\VC\TOOLS\MSVC\14.11.25503\INCLUDE\VCRUNTIME.H
D:\VISUAL STUDIO 2017\VC\TOOLS\MSVC\14.11.25503\INCLUDE\SAL.H
D:\VISUAL STUDIO 2017\VC\TOOLS\MSVC\14.11.25503\INCLUDE\CONCURRENCYSAL.H
D:\VISUAL STUDIO 2017\VC\TOOLS\MSVC\14.11.25503\INCLUDE\VADEFS.H
C:\PROGRAM FILES (X86)\WINDOWS KITS\10\INCLUDE\10.0.15063.0\UCRT\CORECRT.H
D:\VISUAL STUDIO 2017\VC\TOOLS\MSVC\14.11.25503\INCLUDE\USE_ANSI.H
C:\PROGRAM FILES (X86)\WINDOWS KITS\10\INCLUDE\10.0.15063.0\UCRT\STDLIB.H
C:\PROGRAM FILES (X86)\WINDOWS KITS\10\INCLUDE\10.0.15063.0\UCRT\CORECRT_MALLOC.H
C:\PROGRAM FILES (X86)\WINDOWS KITS\10\INCLUDE\10.0.15063.0\UCRT\CORECRT_SEARCH.H
C:\PROGRAM FILES (X86)\WINDOWS KITS\10\INCLUDE\10.0.15063.0\UCRT\STDDEF.H
C:\PROGRAM FILES (X86)\WINDOWS KITS\10\INCLUDE\10.0.15063.0\UCRT\CORECRT_WSTDLIB.H
D:\VISUAL STUDIO 2017\VC\TOOLS\MSVC\14.11.25503\INCLUDE\LIMITS.H
C:\PROGRAM FILES (X86)\WINDOWS KITS\10\INCLUDE\10.0.15063.0\UCRT\MATH.H
C:\PROGRAM FILES (X86)\WINDOWS KITS\10\INCLUDE\10.0.15063.0\UCRT\CORECRT_MATH.H
D:\VISUAL STUDIO 2017\VC\TOOLS\MSVC\14.11.25503\INCLUDE\IOSTREAM
D:\VISUAL STUDIO 2017\VC\TOOLS\MSVC\14.11.25503\INCLUDE\ISTREAM
D:\VISUAL STUDIO 2017\VC\TOOLS\MSVC\14.11.25503\INCLUDE\OSTREAM
D:\VISUAL STUDIO 2017\VC\TOOLS\MSVC\14.11.25503\INCLUDE\IOS
D:\VISUAL STUDIO 2017\VC\TOOLS\MSVC\14.11.25503\INCLUDE\XLOCNUM
D:\VISUAL STUDIO 2017\VC\TOOLS\MSVC\14.11.25503\INCLUDE\CLIMITS
D:\VISUAL STUDIO 2017\VC\TOOLS\MSVC\14.11.25503\INCLUDE\CMATH
D:\VISUAL STUDIO 2017\VC\TOOLS\MSVC\14.11.25503\INCLUDE\XTGMATH.H
D:\VISUAL STUDIO 2017\VC\TOOLS\MSVC\14.11.25503\INCLUDE\XTR1COMMON
D:\VISUAL STUDIO 2017\VC\TOOLS\MSVC\14.11.25503\INCLUDE\CSTDIO
C:\PROGRAM FILES (X86)\WINDOWS KITS\10\INCLUDE\10.0.15063.0\UCRT\STDIO.H
C:\PROGRAM FILES (X86)\WINDOWS KITS\10\INCLUDE\10.0.15063.0\UCRT\CORECRT_WSTDIO.H
C:\PROGRAM FILES (X86)\WINDOWS KITS\10\INCLUDE\10.0.15063.0\UCRT\CORECRT_STDIO_CONFIG.H
D:\VISUAL STUDIO 2017\VC\TOOLS\MSVC\14.11.25503\INCLUDE\STREAMBUF
D:\VISUAL STUDIO 2017\VC\TOOLS\MSVC\14.11.25503\INCLUDE\XIOSBASE
D:\VISUAL STUDIO 2017\VC\TOOLS\MSVC\14.11.25503\INCLUDE\XLOCALE
D:\VISUAL STUDIO 2017\VC\TOOLS\MSVC\14.11.25503\INCLUDE\CSTRING
C:\PROGRAM FILES (X86)\WINDOWS KITS\10\INCLUDE\10.0.15063.0\UCRT\STRING.H
C:\PROGRAM FILES (X86)\WINDOWS KITS\10\INCLUDE\10.0.15063.0\UCRT\CORECRT_MEMORY.H
C:\PROGRAM FILES (X86)\WINDOWS KITS\10\INCLUDE\10.0.15063.0\UCRT\CORECRT_MEMCPY_S.H
C:\PROGRAM FILES (X86)\WINDOWS KITS\10\INCLUDE\10.0.15063.0\UCRT\ERRNO.H
D:\VISUAL STUDIO 2017\VC\TOOLS\MSVC\14.11.25503\INCLUDE\VCRUNTIME_STRING.H
C:\PROGRAM FILES (X86)\WINDOWS KITS\10\INCLUDE\10.0.15063.0\UCRT\CORECRT_WSTRING.H
D:\VISUAL STUDIO 2017\VC\TOOLS\MSVC\14.11.25503\INCLUDE\STDEXCEPT
D:\VISUAL STUDIO 2017\VC\TOOLS\MSVC\14.11.25503\INCLUDE\EXCEPTION
D:\VISUAL STUDIO 2017\VC\TOOLS\MSVC\14.11.25503\INCLUDE\TYPE_TRAITS
D:\VISUAL STUDIO 2017\VC\TOOLS\MSVC\14.11.25503\INCLUDE\XSTDDEF
D:\VISUAL STUDIO 2017\VC\TOOLS\MSVC\14.11.25503\INCLUDE\CSTDDEF
D:\VISUAL STUDIO 2017\VC\TOOLS\MSVC\14.11.25503\INCLUDE\INITIALIZER_LIST
C:\PROGRAM FILES (X86)\WINDOWS KITS\10\INCLUDE\10.0.15063.0\UCRT\MALLOC.H
D:\VISUAL STUDIO 2017\VC\TOOLS\MSVC\14.11.25503\INCLUDE\VCRUNTIME_EXCEPTION.H
D:\VISUAL STUDIO 2017\VC\TOOLS\MSVC\14.11.25503\INCLUDE\EH.H
C:\PROGRAM FILES (X86)\WINDOWS KITS\10\INCLUDE\10.0.15063.0\UCRT\CORECRT_TERMINATE.H
D:\VISUAL STUDIO 2017\VC\TOOLS\MSVC\14.11.25503\INCLUDE\XSTRING
D:\VISUAL STUDIO 2017\VC\TOOLS\MSVC\14.11.25503\INCLUDE\XMEMORY0
D:\VISUAL STUDIO 2017\VC\TOOLS\MSVC\14.11.25503\INCLUDE\CSTDINT
D:\VISUAL STUDIO 2017\VC\TOOLS\MSVC\14.11.25503\INCLUDE\STDINT.H
D:\VISUAL STUDIO 2017\VC\TOOLS\MSVC\14.11.25503\INCLUDE\LIMITS
D:\VISUAL STUDIO 2017\VC\TOOLS\MSVC\14.11.25503\INCLUDE\YMATH.H
D:\VISUAL STUDIO 2017\VC\TOOLS\MSVC\14.11.25503\INCLUDE\CFLOAT
C:\PROGRAM FILES (X86)\WINDOWS KITS\10\INCLUDE\10.0.15063.0\UCRT\FLOAT.H
D:\VISUAL STUDIO 2017\VC\TOOLS\MSVC\14.11.25503\INCLUDE\CWCHAR
C:\PROGRAM FILES (X86)\WINDOWS KITS\10\INCLUDE\10.0.15063.0\UCRT\WCHAR.H
C:\PROGRAM FILES (X86)\WINDOWS KITS\10\INCLUDE\10.0.15063.0\UCRT\CORECRT_WCONIO.H
C:\PROGRAM FILES (X86)\WINDOWS KITS\10\INCLUDE\10.0.15063.0\UCRT\CORECRT_WCTYPE.H
C:\PROGRAM FILES (X86)\WINDOWS KITS\10\INCLUDE\10.0.15063.0\UCRT\CORECRT_WDIRECT.H
C:\PROGRAM FILES (X86)\WINDOWS KITS\10\INCLUDE\10.0.15063.0\UCRT\CORECRT_WIO.H
C:\PROGRAM FILES (X86)\WINDOWS KITS\10\INCLUDE\10.0.15063.0\UCRT\CORECRT_SHARE.H
C:\PROGRAM FILES (X86)\WINDOWS KITS\10\INCLUDE\10.0.15063.0\UCRT\CORECRT_WPROCESS.H
C:\PROGRAM FILES (X86)\WINDOWS KITS\10\INCLUDE\10.0.15063.0\UCRT\CORECRT_WTIME.H
C:\PROGRAM FILES (X86)\WINDOWS KITS\10\INCLUDE\10.0.15063.0\UCRT\SYS\STAT.H
C:\PROGRAM FILES (X86)\WINDOWS KITS\10\INCLUDE\10.0.15063.0\UCRT\SYS\TYPES.H
D:\VISUAL STUDIO 2017\VC\TOOLS\MSVC\14.11.25503\INCLUDE\NEW
D:\VISUAL STUDIO 2017\VC\TOOLS\MSVC\14.11.25503\INCLUDE\VCRUNTIME_NEW.H
D:\VISUAL STUDIO 2017\VC\TOOLS\MSVC\14.11.25503\INCLUDE\XUTILITY
D:\VISUAL STUDIO 2017\VC\TOOLS\MSVC\14.11.25503\INCLUDE\UTILITY
D:\VISUAL STUDIO 2017\VC\TOOLS\MSVC\14.11.25503\INCLUDE\IOSFWD
C:\PROGRAM FILES (X86)\WINDOWS KITS\10\INCLUDE\10.0.15063.0\UCRT\CRTDBG.H
D:\VISUAL STUDIO 2017\VC\TOOLS\MSVC\14.11.25503\INCLUDE\VCRUNTIME_NEW_DEBUG.H
D:\VISUAL STUDIO 2017\VC\TOOLS\MSVC\14.11.25503\INCLUDE\XATOMIC0.H
D:\VISUAL STUDIO 2017\VC\TOOLS\MSVC\14.11.25503\INCLUDE\INTRIN0.H
D:\VISUAL STUDIO 2017\VC\TOOLS\MSVC\14.11.25503\INCLUDE\TYPEINFO
D:\VISUAL STUDIO 2017\VC\TOOLS\MSVC\14.11.25503\INCLUDE\VCRUNTIME_TYPEINFO.H
D:\VISUAL STUDIO 2017\VC\TOOLS\MSVC\14.11.25503\INCLUDE\XLOCINFO
D:\VISUAL STUDIO 2017\VC\TOOLS\MSVC\14.11.25503\INCLUDE\XLOCINFO.H
C:\PROGRAM FILES (X86)\WINDOWS KITS\10\INCLUDE\10.0.15063.0\UCRT\CTYPE.H
C:\PROGRAM FILES (X86)\WINDOWS KITS\10\INCLUDE\10.0.15063.0\UCRT\LOCALE.H
D:\VISUAL STUDIO 2017\VC\TOOLS\MSVC\14.11.25503\INCLUDE\XFACET
D:\VISUAL STUDIO 2017\VC\TOOLS\MSVC\14.11.25503\INCLUDE\SYSTEM_ERROR
D:\VISUAL STUDIO 2017\VC\TOOLS\MSVC\14.11.25503\INCLUDE\CERRNO
D:\VISUAL STUDIO 2017\VC\TOOLS\MSVC\14.11.25503\INCLUDE\XCALL_ONCE.H
C:\PROGRAM FILES (X86)\WINDOWS KITS\10\INCLUDE\10.0.15063.0\UCRT\SHARE.H
D:\VISUAL STUDIO 2017\VC\TOOLS\MSVC\14.11.25503\INCLUDE\STRING
D:\VISUAL STUDIO 2017\VC\TOOLS\MSVC\14.11.25503\INCLUDE\XSTRING_INSERT.H
D:\VISUAL STUDIO 2017\VC\TOOLS\MSVC\14.11.25503\BIN\HOSTX86\X86\MSPDBSRV.EXE
