^D:\OLIO-JATKO\HARJOITUKSET\HARJOITUS2_2\REFCOUNT.CPP
D:\OLIO-JATKO\HARJOITUKSET\HARJOITUS2_2\DEBUG\VC141.PDB
D:\OLIO-JATKO\HARJOITUKSET\HARJOITUS2_2\DEBUG\VC141.IDB
D:\OLIO-JATKO\HARJOITUKSET\HARJOITUS2_2\DEBUG\REFCOUNT.OBJ
