#Command:  
C:\WINDOWS\ASSEMBLY\NATIVEIMAGES_V4.0.30319_32\SYSTEM.RUNTIME\4BE5A58B1ADBB241272F473DB6DF3270\SYSTEM.RUNTIME.NI.DLL
C:\WINDOWS\ASSEMBLY\NATIVEIMAGES_V4.0.30319_32\SYSTEM.RUNTIME\4BE5A58B1ADBB241272F473DB6DF3270\SYSTEM.RUNTIME.NI.DLL.AUX
C:\WINDOWS\ASSEMBLY\NATIVEIMAGES_V4.0.30319_32\SYSTEM.COLLECTIONS\AB9344D08B402986CD22219E0D6DA09C\SYSTEM.COLLECTIONS.NI.DLL
C:\WINDOWS\ASSEMBLY\NATIVEIMAGES_V4.0.30319_32\SYSTEM.COLLECTIONS\AB9344D08B402986CD22219E0D6DA09C\SYSTEM.COLLECTIONS.NI.DLL.AUX
C:\WINDOWS\ASSEMBLY\NATIVEIMAGES_V4.0.30319_32\SYSTEM.REFLECTION\EA1041251345F8FD380886FC5018DC2E\SYSTEM.REFLECTION.NI.DLL
C:\WINDOWS\ASSEMBLY\NATIVEIMAGES_V4.0.30319_32\SYSTEM.REFLECTION\EA1041251345F8FD380886FC5018DC2E\SYSTEM.REFLECTION.NI.DLL.AUX
