#Command:  
C:\WINDOWS\MICROSOFT.NET\FRAMEWORK\V2.0.50727\MSCORWKS.DLL
C:\WINDOWS\MICROSOFT.NET\FRAMEWORK\V4.0.30319\CLR.DLL
C:\PROGRAM FILES (X86)\VS2017\VC\TOOLS\MSVC\14.10.25017\BIN\HOSTX86\X86\VCTIP.EXE
C:\WINDOWS\MICROSOFT.NET\FRAMEWORK\V4.0.30319\CLR.DLL
C:\WINDOWS\MICROSOFT.NET\FRAMEWORK\V4.0.30319\CONFIG\MACHINE.CONFIG
C:\WINDOWS\GLOBALIZATION\SORTING\SORTDEFAULT.NLS
C:\WINDOWS\MICROSOFT.NET\ASSEMBLY\GAC_32\MSCORLIB\V4.0_4.0.0.0__B77A5C561934E089\MSCORLIB.DLL
C:\WINDOWS\ASSEMBLY\NATIVEIMAGES_V4.0.30319_32\MSCORLIB\F12799647DC4F4ABD2F0F17790337F04\MSCORLIB.NI.DLL
C:\WINDOWS\ASSEMBLY\NATIVEIMAGES_V4.0.30319_32\MSCORLIB\F12799647DC4F4ABD2F0F17790337F04\MSCORLIB.NI.DLL.AUX
C:\WINDOWS\MICROSOFT.NET\ASSEMBLY\GAC_32\MSCORLIB\V4.0_4.0.0.0__B77A5C561934E089\MSCORLIB.DLL
C:\PROGRAM FILES (X86)\VS2017\VC\TOOLS\MSVC\14.10.25017\BIN\HOSTX86\X86\VCTIP.EXE
C:\USERS\E3TEMIEL\APPDATA\LOCAL\MICROSOFT\VSCOMMON\15.0\SQM\VCTOOLSTELEMETRY.DAT
C:\WINDOWS\SYSTEM32\TZRES.DLL
C:\USERS\E3TEMIEL\APPDATA\LOCAL\MICROSOFT\VSCOMMON\15.0\SQM\VCTOOLSTELEMETRY.DAT.TMP
C:\WINDOWS\ASSEMBLY\PUBPOL39.DAT
C:\WINDOWS\MICROSOFT.NET\FRAMEWORK\V4.0.30319\CONFIG\MACHINE.CONFIG
C:\PROGRAM FILES (X86)\VS2017\VC\TOOLS\MSVC\14.10.25017\BIN\HOSTX86\X86\MICROSOFT.VISUALSTUDIO.TELEMETRY.DLL
C:\WINDOWS\ASSEMBLY\NATIVEIMAGES_V4.0.30319_32\MICROSOFT.VF87AED9A#\006624296EB15602B52770D5AAAC0DD0\MICROSOFT.VISUALSTUDIO.TELEMETRY.NI.DLL
C:\WINDOWS\ASSEMBLY\NATIVEIMAGES_V4.0.30319_32\MICROSOFT.VF87AED9A#\006624296EB15602B52770D5AAAC0DD0\MICROSOFT.VISUALSTUDIO.TELEMETRY.NI.DLL.AUX
C:\PROGRAM FILES (X86)\VS2017\VC\TOOLS\MSVC\14.10.25017\BIN\HOSTX86\X86\MICROSOFT.VISUALSTUDIO.TELEMETRY.DLL
C:\WINDOWS\ASSEMBLY\NATIVEIMAGES_V4.0.30319_32\MICROSOFT.VF87AED9A#\C2072CF13AAC5620C506F19F885A0C1E\MICROSOFT.VISUALSTUDIO.TELEMETRY.NI.DLL
C:\WINDOWS\ASSEMBLY\NATIVEIMAGES_V4.0.30319_32\MICROSOFT.VF87AED9A#\C2072CF13AAC5620C506F19F885A0C1E\MICROSOFT.VISUALSTUDIO.TELEMETRY.NI.DLL.AUX
C:\WINDOWS\ASSEMBLY\NATIVEIMAGES_V4.0.30319_32\MICROSOFT.VF87AED9A#\006624296EB15602B52770D5AAAC0DD0\MICROSOFT.VISUALSTUDIO.TELEMETRY.NI.DLL
C:\WINDOWS\ASSEMBLY\NATIVEIMAGES_V4.0.30319_32\MICROSOFT.VF87AED9A#\006624296EB15602B52770D5AAAC0DD0\MICROSOFT.VISUALSTUDIO.TELEMETRY.NI.DLL.AUX
C:\PROGRAM FILES (X86)\VS2017\VC\TOOLS\MSVC\14.10.25017\BIN\HOSTX86\X86\MICROSOFT.VISUALSTUDIO.TELEMETRY.DLL
C:\WINDOWS\ASSEMBLY\NATIVEIMAGES_V4.0.30319_32\MICROSOFT.VF87AED9A#\C2072CF13AAC5620C506F19F885A0C1E\MICROSOFT.VISUALSTUDIO.TELEMETRY.NI.DLL
C:\WINDOWS\ASSEMBLY\NATIVEIMAGES_V4.0.30319_32\MICROSOFT.VF87AED9A#\C2072CF13AAC5620C506F19F885A0C1E\MICROSOFT.VISUALSTUDIO.TELEMETRY.NI.DLL.AUX
C:\PROGRAM FILES (X86)\VS2017\VC\TOOLS\MSVC\14.10.25017\BIN\HOSTX86\X86\MICROSOFT.VISUALSTUDIO.UTILITIES.INTERNAL.DLL
C:\WINDOWS\ASSEMBLY\NATIVEIMAGES_V4.0.30319_32\MICROSOFT.VDE5ED89A#\45556A272FD7F7543004FDBA993EC7A7\MICROSOFT.VISUALSTUDIO.UTILITIES.INTERNAL.NI.DLL
C:\WINDOWS\ASSEMBLY\NATIVEIMAGES_V4.0.30319_32\MICROSOFT.VDE5ED89A#\45556A272FD7F7543004FDBA993EC7A7\MICROSOFT.VISUALSTUDIO.UTILITIES.INTERNAL.NI.DLL.AUX
C:\PROGRAM FILES (X86)\VS2017\VC\TOOLS\MSVC\14.10.25017\BIN\HOSTX86\X86\MICROSOFT.VISUALSTUDIO.UTILITIES.INTERNAL.DLL
C:\WINDOWS\ASSEMBLY\NATIVEIMAGES_V4.0.30319_32\MICROSOFT.VDE5ED89A#\CC3DA6C2A28D51A4DB89766ADA129197\MICROSOFT.VISUALSTUDIO.UTILITIES.INTERNAL.NI.DLL
C:\WINDOWS\ASSEMBLY\NATIVEIMAGES_V4.0.30319_32\MICROSOFT.VDE5ED89A#\CC3DA6C2A28D51A4DB89766ADA129197\MICROSOFT.VISUALSTUDIO.UTILITIES.INTERNAL.NI.DLL.AUX
C:\WINDOWS\ASSEMBLY\NATIVEIMAGES_V4.0.30319_32\MICROSOFT.VDE5ED89A#\45556A272FD7F7543004FDBA993EC7A7\MICROSOFT.VISUALSTUDIO.UTILITIES.INTERNAL.NI.DLL
C:\WINDOWS\ASSEMBLY\NATIVEIMAGES_V4.0.30319_32\MICROSOFT.VDE5ED89A#\45556A272FD7F7543004FDBA993EC7A7\MICROSOFT.VISUALSTUDIO.UTILITIES.INTERNAL.NI.DLL.AUX
C:\PROGRAM FILES (X86)\VS2017\VC\TOOLS\MSVC\14.10.25017\BIN\HOSTX86\X86\MICROSOFT.VISUALSTUDIO.UTILITIES.INTERNAL.DLL
C:\WINDOWS\ASSEMBLY\NATIVEIMAGES_V4.0.30319_32\MICROSOFT.VDE5ED89A#\CC3DA6C2A28D51A4DB89766ADA129197\MICROSOFT.VISUALSTUDIO.UTILITIES.INTERNAL.NI.DLL
C:\WINDOWS\ASSEMBLY\NATIVEIMAGES_V4.0.30319_32\MICROSOFT.VDE5ED89A#\CC3DA6C2A28D51A4DB89766ADA129197\MICROSOFT.VISUALSTUDIO.UTILITIES.INTERNAL.NI.DLL.AUX
C:\WINDOWS\MICROSOFT.NET\ASSEMBLY\GAC_MSIL\SYSTEM.CORE\V4.0_4.0.0.0__B77A5C561934E089\SYSTEM.CORE.DLL
C:\WINDOWS\ASSEMBLY\NATIVEIMAGES_V4.0.30319_32\SYSTEM.CORE\2879CB1DA6A81149921321ED2E92CC03\SYSTEM.CORE.NI.DLL
C:\WINDOWS\ASSEMBLY\NATIVEIMAGES_V4.0.30319_32\SYSTEM.CORE\2879CB1DA6A81149921321ED2E92CC03\SYSTEM.CORE.NI.DLL.AUX
C:\WINDOWS\MICROSOFT.NET\ASSEMBLY\GAC_MSIL\SYSTEM.CORE\V4.0_4.0.0.0__B77A5C561934E089\SYSTEM.CORE.DLL
C:\WINDOWS\MICROSOFT.NET\ASSEMBLY\GAC_MSIL\SYSTEM\V4.0_4.0.0.0__B77A5C561934E089\SYSTEM.DLL
C:\WINDOWS\ASSEMBLY\NATIVEIMAGES_V4.0.30319_32\SYSTEM\4907C1A66F2AAD8AC610BCC2832C80A4\SYSTEM.NI.DLL
C:\WINDOWS\ASSEMBLY\NATIVEIMAGES_V4.0.30319_32\SYSTEM\4907C1A66F2AAD8AC610BCC2832C80A4\SYSTEM.NI.DLL.AUX
C:\WINDOWS\MICROSOFT.NET\ASSEMBLY\GAC_MSIL\SYSTEM\V4.0_4.0.0.0__B77A5C561934E089\SYSTEM.DLL
C:\WINDOWS\MICROSOFT.NET\ASSEMBLY\GAC_MSIL\SYSTEM.CONFIGURATION\V4.0_4.0.0.0__B03F5F7F11D50A3A\SYSTEM.CONFIGURATION.DLL
C:\WINDOWS\MICROSOFT.NET\ASSEMBLY\GAC_MSIL\SYSTEM.XML\V4.0_4.0.0.0__B77A5C561934E089\SYSTEM.XML.DLL
C:\WINDOWS\MICROSOFT.NET\ASSEMBLY\GAC_MSIL\SYSTEM.NUMERICS\V4.0_4.0.0.0__B77A5C561934E089\SYSTEM.NUMERICS.DLL
C:\WINDOWS\MICROSOFT.NET\ASSEMBLY\GAC_MSIL\SYSTEM.SECURITY\V4.0_4.0.0.0__B03F5F7F11D50A3A\SYSTEM.SECURITY.DLL
C:\WINDOWS\SYSTEM32\EN-US\TZRES.DLL.MUI
C:\PROGRAM FILES (X86)\VS2017\VC\TOOLS\MSVC\14.10.25017\BIN\HOSTX86\X86\VCTIP.EXE
C:\WINDOWS\SYSTEM32\WINNLSRES.DLL
C:\PROGRAM FILES (X86)\VS2017\VC\TOOLS\MSVC\14.10.25017\BIN\HOSTX86\X86\MICROSOFT.VISUALSTUDIO.TELEMETRY.DLL
C:\PROGRAM FILES (X86)\VS2017\VC\TOOLS\MSVC\14.10.25017\BIN\HOSTX86\X86\MICROSOFT.VISUALSTUDIO.REMOTECONTROL.DLL
C:\WINDOWS\ASSEMBLY\NATIVEIMAGES_V4.0.30319_32\MICROSOFT.V8F370856#\1980F6BD5EA333F2BCBC7D4C4D0A4959\MICROSOFT.VISUALSTUDIO.REMOTECONTROL.NI.DLL
C:\WINDOWS\ASSEMBLY\NATIVEIMAGES_V4.0.30319_32\MICROSOFT.V8F370856#\1980F6BD5EA333F2BCBC7D4C4D0A4959\MICROSOFT.VISUALSTUDIO.REMOTECONTROL.NI.DLL.AUX
C:\PROGRAM FILES (X86)\VS2017\VC\TOOLS\MSVC\14.10.25017\BIN\HOSTX86\X86\MICROSOFT.VISUALSTUDIO.REMOTECONTROL.DLL
C:\WINDOWS\ASSEMBLY\NATIVEIMAGES_V4.0.30319_32\MICROSOFT.V8F370856#\785D1C67A698D642F648E24ACFD0C2F9\MICROSOFT.VISUALSTUDIO.REMOTECONTROL.NI.DLL
C:\WINDOWS\ASSEMBLY\NATIVEIMAGES_V4.0.30319_32\MICROSOFT.V8F370856#\785D1C67A698D642F648E24ACFD0C2F9\MICROSOFT.VISUALSTUDIO.REMOTECONTROL.NI.DLL.AUX
C:\PROGRAM FILES (X86)\VS2017\VC\TOOLS\MSVC\14.10.25017\BIN\HOSTX86\X86\MICROSOFT.VISUALSTUDIO.REMOTECONTROL.DLL
C:\WINDOWS\ASSEMBLY\NATIVEIMAGES_V4.0.30319_32\MICROSOFT.V8F370856#\1980F6BD5EA333F2BCBC7D4C4D0A4959\MICROSOFT.VISUALSTUDIO.REMOTECONTROL.NI.DLL
C:\WINDOWS\ASSEMBLY\NATIVEIMAGES_V4.0.30319_32\MICROSOFT.V8F370856#\1980F6BD5EA333F2BCBC7D4C4D0A4959\MICROSOFT.VISUALSTUDIO.REMOTECONTROL.NI.DLL.AUX
C:\WINDOWS\ASSEMBLY\NATIVEIMAGES_V4.0.30319_32\MICROSOFT.V8F370856#\785D1C67A698D642F648E24ACFD0C2F9\MICROSOFT.VISUALSTUDIO.REMOTECONTROL.NI.DLL
C:\WINDOWS\ASSEMBLY\NATIVEIMAGES_V4.0.30319_32\MICROSOFT.V8F370856#\785D1C67A698D642F648E24ACFD0C2F9\MICROSOFT.VISUALSTUDIO.REMOTECONTROL.NI.DLL.AUX
