^D:\OLIO-JATKO\HARJOITUKSET\HARJOITUS3\DEBUG\MAIN.OBJ|D:\OLIO-JATKO\HARJOITUKSET\HARJOITUS3\DEBUG\MURTOLUKU.OBJ
D:\OLIO-JATKO\HARJOITUKSET\DEBUG\HARJOITUS3.ILK
D:\OLIO-JATKO\HARJOITUKSET\DEBUG\HARJOITUS3.EXE
D:\OLIO-JATKO\HARJOITUKSET\DEBUG\HARJOITUS3.PDB
